^C:\USERS\MAGSHIMIM\DESKTOP\LESSON6\סעיף 1\EXCEP_CALC.CPP
C:\USERS\MAGSHIMIM\DESKTOP\LESSON6\סעיף 1\EX6\EX6\X64\DEBUG\VC141.PDB
C:\USERS\MAGSHIMIM\DESKTOP\LESSON6\סעיף 1\EX6\EX6\X64\DEBUG\VC141.IDB
C:\USERS\MAGSHIMIM\DESKTOP\LESSON6\סעיף 1\EX6\EX6\X64\DEBUG\EXCEP_CALC.OBJ
